\relax 
\providecommand\hyper@newdestlabel[2]{}
\providecommand\babel@aux[2]{}
\@nameuse{bbl@beforestart}
\catcode `"\active 
\providecommand\HyperFirstAtBeginDocument{\AtBeginDocument}
\HyperFirstAtBeginDocument{\ifx\hyper@anchor\@undefined
\global\let\oldcontentsline\contentsline
\gdef\contentsline#1#2#3#4{\oldcontentsline{#1}{#2}{#3}}
\global\let\oldnewlabel\newlabel
\gdef\newlabel#1#2{\newlabelxx{#1}#2}
\gdef\newlabelxx#1#2#3#4#5#6{\oldnewlabel{#1}{{#2}{#3}}}
\AtEndDocument{\ifx\hyper@anchor\@undefined
\let\contentsline\oldcontentsline
\let\newlabel\oldnewlabel
\fi}
\fi}
\global\let\hyper@last\relax 
\gdef\HyperFirstAtBeginDocument#1{#1}
\providecommand\HyField@AuxAddToFields[1]{}
\providecommand\HyField@AuxAddToCoFields[2]{}
\babel@aux{serbian}{}
\@writefile{toc}{\contentsline {section}{\numberline {1}UVOD}{7}{section.1}\protected@file@percent }
\citation{Fajgelj2020}
\citation{Partchev2004}
\citation{An2014}
\citation{Vale1988}
\citation{Fajgelj2020}
\citation{Fajgelj2020}
\citation{Fajgelj2020}
\citation{Partchev2004}
\citation{Partchev2004}
\citation{Fajgelj2020}
\@writefile{toc}{\contentsline {section}{\numberline {2}TEORIJSKE OSNOVE}{8}{section.2}\protected@file@percent }
\newlabel{sec:teorijske_osnove}{{2}{8}{TEORIJSKE OSNOVE}{section.2}{}}
\@writefile{toc}{\contentsline {subsection}{\numberline {2.1}Probabilistička teorija testova}{8}{subsection.2.1}\protected@file@percent }
\newlabel{sec:IRT}{{2.1}{8}{Probabilistička teorija testova}{subsection.2.1}{}}
\citation{Fajgelj2020}
\citation{Baker2001}
\citation{Baker2001}
\citation{Baker2001}
\citation{Partchev2004}
\citation{Fajgelj2020}
\citation{Vale1988}
\citation{Fajgelj2020}
\citation{Baker2001}
\citation{Lord1975}
\citation{Baker2001}
\newlabel{eq:Pispitanika}{{1}{9}{Probabilistička teorija testova}{equation.2.1}{}}
\newlabel{eq:Pstakve}{{2}{9}{Probabilistička teorija testova}{equation.2.2}{}}
\newlabel{eq:Pukupno}{{3}{9}{Probabilistička teorija testova}{equation.2.3}{}}
\newlabel{eq:Eukupno}{{4}{9}{Probabilistička teorija testova}{equation.2.4}{}}
\newlabel{eq:Ejed}{{5}{9}{Probabilistička teorija testova}{equation.2.5}{}}
\citation{Fajgelj2020}
\citation{Fajgelj2020}
\@writefile{toc}{\contentsline {subsubsection}{\numberline {2.1.1}Karakteristična kriva stavke}{10}{subsubsection.2.1.1}\protected@file@percent }
\newlabel{sec:ICC}{{2.1.1}{10}{Karakteristična kriva stavke}{subsubsection.2.1.1}{}}
\@writefile{lof}{\contentsline {figure}{\numberline {1}{\ignorespaces Sigmoidna kriva\relax }}{10}{figure.caption.1}\protected@file@percent }
\providecommand*\caption@xref[2]{\@setref\relax\@undefined{#1}}
\newlabel{fig:sigmoid}{{1}{10}{Sigmoidna kriva\relax }{figure.caption.1}{}}
\@writefile{lof}{\contentsline {figure}{\numberline {2}{\ignorespaces Karakteristična kriva stavke\relax }}{10}{figure.caption.2}\protected@file@percent }
\newlabel{fig:ICC}{{2}{10}{Karakteristična kriva stavke\relax }{figure.caption.2}{}}
\citation{Fajgelj2020}
\citation{Fajgelj2020}
\citation{Fajgelj2020}
\citation{Fajgelj2020}
\citation{Partchev2004}
\newlabel{eq:4pl_tp}{{7}{11}{Karakteristična kriva stavke}{equation.2.7}{}}
\@writefile{toc}{\contentsline {subsubsection}{\numberline {2.1.2}Karakteristična kriva testa}{11}{subsubsection.2.1.2}\protected@file@percent }
\newlabel{sec:TCC}{{2.1.2}{11}{Karakteristična kriva testa}{subsubsection.2.1.2}{}}
\newlabel{eq:TCC}{{8}{11}{Karakteristična kriva testa}{equation.2.8}{}}
\newlabel{eq:TCC_2}{{9}{11}{Karakteristična kriva testa}{equation.2.9}{}}
\@writefile{toc}{\contentsline {subsubsection}{\numberline {2.1.3}Informacione krive}{11}{subsubsection.2.1.3}\protected@file@percent }
\newlabel{sec:IC}{{2.1.3}{11}{Informacione krive}{subsubsection.2.1.3}{}}
\newlabel{eq:IIC}{{10}{11}{Informacione krive}{equation.2.10}{}}
\citation{Fajgelj2020}
\citation{Fajgelj2020}
\citation{Baker2001}
\citation{An2014}
\citation{Fajgelj2020}
\citation{Fajgelj2020}
\newlabel{eq:TIC}{{11}{12}{Informacione krive}{equation.2.11}{}}
\@writefile{toc}{\contentsline {subsubsection}{\numberline {2.1.4}Vrste modela}{12}{subsubsection.2.1.4}\protected@file@percent }
\newlabel{sec:vrste_modela}{{2.1.4}{12}{Vrste modela}{subsubsection.2.1.4}{}}
\citation{Fajgelj2020}
\citation{Fajgelj2020}
\citation{Partchev2004}
\newlabel{eq:4PL}{{12}{13}{Vrste modela}{equation.2.12}{}}
\newlabel{eq:PL_neg}{{13}{13}{Vrste modela}{equation.2.13}{}}
\newlabel{eq:3PN}{{14}{13}{Vrste modela}{equation.2.14}{}}
\@writefile{toc}{\contentsline {subsubsection}{\numberline {2.1.5}Parametar težine}{13}{subsubsection.2.1.5}\protected@file@percent }
\newlabel{sec:param_b}{{2.1.5}{13}{Parametar težine}{subsubsection.2.1.5}{}}
\citation{Partchev2004}
\citation{Fajgelj2020}
\citation{Baker2001}
\citation{Fajgelj2020}
\citation{Vale1988}
\citation{Fajgelj2020}
\citation{Fajgelj2020}
\citation{Baker2001}
\citation{Baker2001}
\citation{Fajgelj2020}
\citation{Fajgelj2020}
\@writefile{lof}{\contentsline {figure}{\numberline {3}{\ignorespaces ICC stavki sa različitim vrednostima parametra $b$\relax }}{14}{figure.caption.3}\protected@file@percent }
\newlabel{fig:param_b}{{3}{14}{ICC stavki sa različitim vrednostima parametra $b$\relax }{figure.caption.3}{}}
\@writefile{toc}{\contentsline {subsubsection}{\numberline {2.1.6}Parametar diskrimiativnosti}{14}{subsubsection.2.1.6}\protected@file@percent }
\newlabel{sec:param_a}{{2.1.6}{14}{Parametar diskrimiativnosti}{subsubsection.2.1.6}{}}
\citation{Fajgelj2020}
\citation{Fajgelj2020}
\citation{Fajgelj2020}
\citation{Fajgelj2020}
\@writefile{lof}{\contentsline {figure}{\numberline {4}{\ignorespaces ICC stavki sa različitim vrednostima parametra $a$\relax }}{15}{figure.caption.4}\protected@file@percent }
\newlabel{fig:param_a}{{4}{15}{ICC stavki sa različitim vrednostima parametra $a$\relax }{figure.caption.4}{}}
\@writefile{toc}{\contentsline {subsubsection}{\numberline {2.1.7}Parametri pogađanja i nepažljivosti}{15}{subsubsection.2.1.7}\protected@file@percent }
\newlabel{sec:param_cd}{{2.1.7}{15}{Parametri pogađanja i nepažljivosti}{subsubsection.2.1.7}{}}
\citation{Yamamoto1982}
\citation{Chiu2013}
\@writefile{lof}{\contentsline {figure}{\numberline {5}{\ignorespaces ICC stavki sa različitim vrednostima parametra $c$\relax }}{16}{figure.caption.5}\protected@file@percent }
\newlabel{fig:param_cd}{{5}{16}{ICC stavki sa različitim vrednostima parametra $c$\relax }{figure.caption.5}{}}
\citation{Carr2014}
\citation{Srinivas1994}
\citation{Srinivas1994}
\citation{Carr2014}
\citation{Srinivas1994}
\citation{Carr2014}
\citation{Srinivas1994}
\citation{Carr2014}
\citation{Carr2014}
\citation{Carr2014}
\citation{Srinivas1994}
\citation{Carr2014}
\citation{Srinivas1994}
\citation{Carr2014}
\citation{Carr2014}
\citation{Bodenhofer2004}
\citation{Bodenhofer2004}
\citation{Bodenhofer2004}
\citation{Srinivas1994}
\citation{Carr2014}
\citation{Bodenhofer2004}
\citation{Carr2014}
\@writefile{toc}{\contentsline {subsection}{\numberline {2.2}Genetski algoritmi}{17}{subsection.2.2}\protected@file@percent }
\newlabel{sec:GA}{{2.2}{17}{Genetski algoritmi}{subsection.2.2}{}}
\@writefile{toc}{\contentsline {subsubsection}{\numberline {2.2.1}Terminologija, komponente i process}{17}{subsubsection.2.2.1}\protected@file@percent }
\newlabel{sec:ga_components}{{2.2.1}{17}{Terminologija, komponente i process}{subsubsection.2.2.1}{}}
\citation{Carr2014}
\citation{Srinivas1994}
\citation{Srinivas1994}
\citation{Srinivas1994}
\citation{Krishnakumar1990}
\citation{Krishnakumar1990}
\citation{Carr2014}
\citation{Sudhoff2007}
\@writefile{toc}{\contentsline {subsubsection}{\numberline {2.2.2}Adaptivni genetski algoritmi}{18}{subsubsection.2.2.2}\protected@file@percent }
\newlabel{sec:ga_adaptive}{{2.2.2}{18}{Adaptivni genetski algoritmi}{subsubsection.2.2.2}{}}
\newlabel{eq:fit_diff}{{15}{18}{Adaptivni genetski algoritmi}{equation.2.15}{}}
\@writefile{toc}{\contentsline {subsubsection}{\numberline {2.2.3}Mikro genetski algoritmi}{18}{subsubsection.2.2.3}\protected@file@percent }
\newlabel{sec:ga_micro}{{2.2.3}{18}{Mikro genetski algoritmi}{subsubsection.2.2.3}{}}
\@writefile{toc}{\contentsline {subsubsection}{\numberline {2.2.4}Kodiranje parametara}{18}{subsubsection.2.2.4}\protected@file@percent }
\newlabel{sec:ga_encoding}{{2.2.4}{18}{Kodiranje parametara}{subsubsection.2.2.4}{}}
\citation{Sudhoff2007}
\citation{Carr2014}
\citation{Sudhoff2007}
\citation{Syswerda1989}
\citation{Sudhoff2007}
\citation{Sudhoff2007}
\citation{Sudhoff2007}
\citation{Sudhoff2007}
\citation{Sudhoff2007}
\@writefile{toc}{\contentsline {subsubsection}{\numberline {2.2.5}Tipovi ukrštanja}{19}{subsubsection.2.2.5}\protected@file@percent }
\newlabel{sec:ga_crossover}{{2.2.5}{19}{Tipovi ukrštanja}{subsubsection.2.2.5}{}}
\newlabel{eq:sbc_beta}{{19}{19}{Tipovi ukrštanja}{equation.2.19}{}}
\citation{Sudhoff2007}
\citation{Sudhoff2007}
\citation{Sudhoff2007}
\citation{Sudhoff2007}
\citation{Box1958}
\newlabel{eq:sbc_genes}{{20}{20}{Tipovi ukrštanja}{equation.2.20}{}}
\@writefile{toc}{\contentsline {subsubsection}{\numberline {2.2.6}Tipovi mutacije}{20}{subsubsection.2.2.6}\protected@file@percent }
\newlabel{sec:ga_mutation}{{2.2.6}{20}{Tipovi mutacije}{subsubsection.2.2.6}{}}
\@writefile{lof}{\contentsline {figure}{\numberline {6}{\ignorespaces Normalna distribucija mutiranih vrednosti\relax }}{20}{figure.caption.6}\protected@file@percent }
\newlabel{fig:normal_dist_mutation}{{6}{20}{Normalna distribucija mutiranih vrednosti\relax }{figure.caption.6}{}}
\newlabel{eq:nonuniform_mutation}{{21}{20}{Tipovi mutacije}{equation.2.21}{}}
\newlabel{eq:nonuniform_mutation_power}{{22}{20}{Tipovi mutacije}{equation.2.22}{}}
\citation{Box1958}
\citation{Fajgelj2020}
\@writefile{lof}{\contentsline {figure}{\numberline {7}{\ignorespaces Distribucija mutiranih vrednosti po broju generacije $g$, za $b = 1$ i $g_{max} = 100$\relax }}{21}{figure.caption.7}\protected@file@percent }
\newlabel{fig:nonuniform_mutation_gens}{{7}{21}{Distribucija mutiranih vrednosti po broju generacije $g$, za $b = 1$ i $g_{max} = 100$\relax }{figure.caption.7}{}}
\@writefile{lof}{\contentsline {figure}{\numberline {8}{\ignorespaces Distribucija mutiranih vrednosti po nivou uticaja $b$, za $g = 50$ i $g_{max} = 100$\relax }}{21}{figure.caption.8}\protected@file@percent }
\newlabel{fig:nonuniform_mutation_b}{{8}{21}{Distribucija mutiranih vrednosti po nivou uticaja $b$, za $g = 50$ i $g_{max} = 100$\relax }{figure.caption.8}{}}
\@writefile{toc}{\contentsline {subsection}{\numberline {2.3}Generacija normalno distribuiranih vrednosti}{21}{subsection.2.3}\protected@file@percent }
\newlabel{sec:normal_dist}{{2.3}{21}{Generacija normalno distribuiranih vrednosti}{subsection.2.3}{}}
\newlabel{eq:box_muller}{{23}{21}{Generacija normalno distribuiranih vrednosti}{equation.2.23}{}}
\newlabel{eq:box_muller_plus}{{24}{21}{Generacija normalno distribuiranih vrednosti}{equation.2.24}{}}
\@writefile{toc}{\contentsline {subsection}{\numberline {2.4}Validacija rezultata}{21}{subsection.2.4}\protected@file@percent }
\newlabel{sec:validacija}{{2.4}{21}{Validacija rezultata}{subsection.2.4}{}}
\@writefile{toc}{\contentsline {subsubsection}{\numberline {2.4.1}Standardizovani reziduali}{21}{subsubsection.2.4.1}\protected@file@percent }
\newlabel{sec:validacija_std_rez}{{2.4.1}{21}{Standardizovani reziduali}{subsubsection.2.4.1}{}}
\newlabel{eq:rezidual}{{25}{21}{Standardizovani reziduali}{equation.2.25}{}}
\citation{Embertson2000}
\citation{Fajgelj2020}
\citation{Embertson2000}
\newlabel{eq:rez_x_e}{{26}{22}{Standardizovani reziduali}{equation.2.26}{}}
\newlabel{eq:rez_x_e_var}{{27}{22}{Standardizovani reziduali}{equation.2.27}{}}
\newlabel{eq:rez_std}{{28}{22}{Standardizovani reziduali}{equation.2.28}{}}
\newlabel{eq:rez_std_item}{{29}{22}{Standardizovani reziduali}{equation.2.29}{}}
\newlabel{eq:rez_std_ex}{{30}{22}{Standardizovani reziduali}{equation.2.30}{}}
\newlabel{eq:rez_std_model}{{31}{22}{Standardizovani reziduali}{equation.2.31}{}}
\@writefile{toc}{\contentsline {subsubsection}{\numberline {2.4.2}Standardizovani ZL indeks}{22}{subsubsection.2.4.2}\protected@file@percent }
\newlabel{sec:validacija_log_lik}{{2.4.2}{22}{Standardizovani ZL indeks}{subsubsection.2.4.2}{}}
\newlabel{eq:lik}{{32}{22}{Standardizovani ZL indeks}{equation.2.32}{}}
\citation{Drasgow1985}
\citation{Drasgow1985}
\citation{Drasgow1985}
\citation{Fajgelj2020}
\newlabel{eq:log_lik}{{33}{23}{Standardizovani ZL indeks}{equation.2.33}{}}
\newlabel{eq:std_lz_fit_index}{{34}{23}{Standardizovani ZL indeks}{equation.2.34}{}}
\newlabel{eq:log_lik_exp}{{35}{23}{Standardizovani ZL indeks}{equation.2.35}{}}
\newlabel{eq:log_lik_var}{{36}{23}{Standardizovani ZL indeks}{equation.2.36}{}}
\citation{Fajgelj2020}
\citation{Partchev2004}
\citation{Fajgelj2020}
\citation{Chen2019}
\citation{Fajgelj2020}
\citation{Valgrind}
\citation{OpenMP}
\@writefile{toc}{\contentsline {section}{\numberline {3}PRIMENA GENETSKIH ALGORITAMA}{24}{section.3}\protected@file@percent }
\newlabel{sec:primena}{{3}{24}{PRIMENA GENETSKIH ALGORITAMA}{section.3}{}}
\@writefile{toc}{\contentsline {subsection}{\numberline {3.1}Implementacija}{24}{subsection.3.1}\protected@file@percent }
\newlabel{sec:primena_implementacija}{{3.1}{24}{Implementacija}{subsection.3.1}{}}
\@writefile{toc}{\contentsline {subsubsection}{\numberline {3.1.1}Jezgro}{24}{subsubsection.3.1.1}\protected@file@percent }
\newlabel{sec:primena_implementacija_jezgro}{{3.1.1}{24}{Jezgro}{subsubsection.3.1.1}{}}
\@writefile{lot}{\contentsline {table}{\numberline {1}{\ignorespaces Vreme izvrašavanja GA\relax }}{25}{table.caption.9}\protected@file@percent }
\newlabel{table:parallel_parformace}{{1}{25}{Vreme izvrašavanja GA\relax }{table.caption.9}{}}
\@writefile{toc}{\contentsline {subsubsection}{\numberline {3.1.2}Dodatni programi}{25}{subsubsection.3.1.2}\protected@file@percent }
\newlabel{sec:primena_implementacija_dodatni_programi}{{3.1.2}{25}{Dodatni programi}{subsubsection.3.1.2}{}}
\@writefile{toc}{\contentsline {subsection}{\numberline {3.2}Generacija skupova podataka}{26}{subsection.3.2}\protected@file@percent }
\newlabel{sec:primena_gen_podataka}{{3.2}{26}{Generacija skupova podataka}{subsection.3.2}{}}
\@writefile{lof}{\contentsline {figure}{\numberline {9}{\ignorespaces Šansa $P$ izračunata po modelu i po generisanom skupu podataka\relax }}{27}{figure.caption.10}\protected@file@percent }
\newlabel{fig:gen_model_comp}{{9}{27}{Šansa $P$ izračunata po modelu i po generisanom skupu podataka\relax }{figure.caption.10}{}}
\@writefile{toc}{\contentsline {subsection}{\numberline {3.3}Kodiranje}{27}{subsection.3.3}\protected@file@percent }
\newlabel{sec:primena_kodiranje}{{3.3}{27}{Kodiranje}{subsection.3.3}{}}
\@writefile{toc}{\contentsline {subsection}{\numberline {3.4}Fitnes funkcije}{27}{subsection.3.4}\protected@file@percent }
\newlabel{sec:primena_fitnes}{{3.4}{27}{Fitnes funkcije}{subsection.3.4}{}}
\@writefile{toc}{\contentsline {subsubsection}{\numberline {3.4.1}Reziduali}{28}{subsubsection.3.4.1}\protected@file@percent }
\newlabel{sec:primena_fitnes_rez}{{3.4.1}{28}{Reziduali}{subsubsection.3.4.1}{}}
\newlabel{eq:fitness_rez}{{37}{28}{Reziduali}{equation.3.37}{}}
\@writefile{toc}{\contentsline {subsubsection}{\numberline {3.4.2}Verodostojnost}{28}{subsubsection.3.4.2}\protected@file@percent }
\newlabel{sec:primena_fitnes_lik}{{3.4.2}{28}{Verodostojnost}{subsubsection.3.4.2}{}}
\newlabel{eq:fitness_lik}{{38}{28}{Verodostojnost}{equation.3.38}{}}
\newlabel{eq:optimization_invalidation}{{39}{30}{Verodostojnost}{equation.3.39}{}}
\@writefile{toc}{\contentsline {subsection}{\numberline {3.5}Parametri genetskog algoritma}{30}{subsection.3.5}\protected@file@percent }
\newlabel{sec:primena_params}{{3.5}{30}{Parametri genetskog algoritma}{subsection.3.5}{}}
\@writefile{toc}{\contentsline {subsubsection}{\numberline {3.5.1}Veličina populacije}{30}{subsubsection.3.5.1}\protected@file@percent }
\newlabel{sec:ga_param_populaction_size}{{3.5.1}{30}{Veličina populacije}{subsubsection.3.5.1}{}}
\@writefile{lof}{\contentsline {figure}{\numberline {10}{\ignorespaces Poređenje različitih veličina populacije\relax }}{31}{figure.caption.11}\protected@file@percent }
\newlabel{fig:ga_param_population_size}{{10}{31}{Poređenje različitih veličina populacije\relax }{figure.caption.11}{}}
\@writefile{toc}{\contentsline {subsubsection}{\numberline {3.5.2}Mutacija}{31}{subsubsection.3.5.2}\protected@file@percent }
\newlabel{sec:ga_param_mutation}{{3.5.2}{31}{Mutacija}{subsubsection.3.5.2}{}}
\@writefile{lof}{\contentsline {figure}{\numberline {11}{\ignorespaces Poređenje veličina populacije uz adaptivnu mutaciju\relax }}{31}{figure.caption.12}\protected@file@percent }
\newlabel{fig:ga_param_population_size_adaptive}{{11}{31}{Poređenje veličina populacije uz adaptivnu mutaciju\relax }{figure.caption.12}{}}
\@writefile{lof}{\contentsline {figure}{\numberline {12}{\ignorespaces Poređenje tipova mutacije na većoj populaciji\relax }}{32}{figure.caption.13}\protected@file@percent }
\newlabel{fig:ga_param_mutation_type_30}{{12}{32}{Poređenje tipova mutacije na većoj populaciji\relax }{figure.caption.13}{}}
\@writefile{lof}{\contentsline {figure}{\numberline {13}{\ignorespaces Poređenje tipova mutacije na manjoj populaciji\relax }}{32}{figure.caption.14}\protected@file@percent }
\newlabel{fig:ga_param_mutation_type_10}{{13}{32}{Poređenje tipova mutacije na manjoj populaciji\relax }{figure.caption.14}{}}
\@writefile{toc}{\contentsline {subsubsection}{\numberline {3.5.3}Ukrštanje}{32}{subsubsection.3.5.3}\protected@file@percent }
\newlabel{sec:ga_param_crossover}{{3.5.3}{32}{Ukrštanje}{subsubsection.3.5.3}{}}
\@writefile{lof}{\contentsline {figure}{\numberline {14}{\ignorespaces Poređenje po broj tačaka ukrštanja\relax }}{33}{figure.caption.15}\protected@file@percent }
\newlabel{fig:ga_param_num_of_crossover_points}{{14}{33}{Poređenje po broj tačaka ukrštanja\relax }{figure.caption.15}{}}
\@writefile{lof}{\contentsline {figure}{\numberline {15}{\ignorespaces Performanse za različit broj tačaka ukrštanja\relax }}{33}{figure.caption.16}\protected@file@percent }
\newlabel{fig:perforamce_crossover}{{15}{33}{Performanse za različit broj tačaka ukrštanja\relax }{figure.caption.16}{}}
\@writefile{lof}{\contentsline {figure}{\numberline {16}{\ignorespaces Poređenje različitih veličina populacije uz mešano ukrštanje\relax }}{34}{figure.caption.17}\protected@file@percent }
\newlabel{fig:ga_param_population_size_crossover_blend}{{16}{34}{Poređenje različitih veličina populacije uz mešano ukrštanje\relax }{figure.caption.17}{}}
\@writefile{toc}{\contentsline {subsection}{\numberline {3.6}Skaliranje sa veličinom skupa podataka}{34}{subsection.3.6}\protected@file@percent }
\newlabel{sec:primena_skaliranje}{{3.6}{34}{Skaliranje sa veličinom skupa podataka}{subsection.3.6}{}}
\@writefile{lof}{\contentsline {figure}{\numberline {17}{\ignorespaces Poređenje po veličini skupa podataka\relax }}{35}{figure.caption.18}\protected@file@percent }
\newlabel{fig:scaling_with_dataset}{{17}{35}{Poređenje po veličini skupa podataka\relax }{figure.caption.18}{}}
\@writefile{toc}{\contentsline {subsection}{\numberline {3.7}Modeli}{35}{subsection.3.7}\protected@file@percent }
\newlabel{sec:primena_modeli}{{3.7}{35}{Modeli}{subsection.3.7}{}}
\@writefile{lof}{\contentsline {figure}{\numberline {18}{\ignorespaces Broj parametara logističkog modela\relax }}{35}{figure.caption.19}\protected@file@percent }
\newlabel{fig:model_param_number}{{18}{35}{Broj parametara logističkog modela\relax }{figure.caption.19}{}}
\@writefile{lot}{\contentsline {table}{\numberline {2}{\ignorespaces Rezultati modela fitovanja po modelima skupova podataka\relax }}{36}{table.caption.20}\protected@file@percent }
\newlabel{table:model_ga_vs_model_gen_ds}{{2}{36}{Rezultati modela fitovanja po modelima skupova podataka\relax }{table.caption.20}{}}
\@writefile{toc}{\contentsline {subsection}{\numberline {3.8}Rezultati na realnom skupu podataka}{36}{subsection.3.8}\protected@file@percent }
\newlabel{sec:primena_results_real}{{3.8}{36}{Rezultati na realnom skupu podataka}{subsection.3.8}{}}
\@writefile{toc}{\contentsline {section}{\numberline {4}ZAKLJUČAK}{38}{section.4}\protected@file@percent }
\newlabel{sec:zakljucak}{{4}{38}{ZAKLJUČAK}{section.4}{}}
\bibdata{refs}
\bibcite{Fajgelj2020}{1}
\bibcite{Partchev2004}{2}
\bibcite{An2014}{3}
\bibcite{Vale1988}{4}
\bibcite{Baker2001}{5}
\bibcite{Lord1975}{6}
\bibcite{Yamamoto1982}{7}
\bibcite{Chiu2013}{8}
\bibcite{Carr2014}{9}
\bibcite{Srinivas1994}{10}
\bibcite{Bodenhofer2004}{11}
\bibcite{Krishnakumar1990}{12}
\bibcite{Sudhoff2007}{13}
\bibcite{Syswerda1989}{14}
\bibcite{Box1958}{15}
\bibcite{Embertson2000}{16}
\bibcite{Drasgow1985}{17}
\bibcite{Chen2019}{18}
\@writefile{toc}{\contentsline {section}{LITERATURA}{39}{section.4}\protected@file@percent }
\bibcite{OpenMP}{19}
\bibcite{Valgrind}{20}
\bibstyle{ieeetr}
\@writefile{toc}{\contentsline {section}{DODACI}{41}{section.4}\protected@file@percent }
\@writefile{toc}{\contentsline {subsection}{\numberline {A}Verovatnoća}{41}{subsection.Alph0.1}\protected@file@percent }
\newlabel{sec:dodatak_verovatnoca}{{A}{41}{Verovatnoća}{subsection.Alph0.1}{}}
\@writefile{toc}{\contentsline {subsubsection}{\numberline {A.1}3PL verovatnoća}{41}{subsubsection.Alph0.1.1}\protected@file@percent }
\newlabel{sec:dodatak_3pl}{{A.1}{41}{3PL verovatnoća}{subsubsection.Alph0.1.1}{}}
\@writefile{toc}{\contentsline {subsubsection}{\numberline {A.2}Logartiam verovatnoće}{41}{subsubsection.Alph0.1.2}\protected@file@percent }
\newlabel{sec:dodatak_log_lik}{{A.2}{41}{Logartiam verovatnoće}{subsubsection.Alph0.1.2}{}}
\@writefile{toc}{\contentsline {subsection}{\numberline {B}Metrike}{41}{subsection.Alph0.2}\protected@file@percent }
\newlabel{sec:dodatak_metrike}{{B}{41}{Metrike}{subsection.Alph0.2}{}}
\@writefile{toc}{\contentsline {subsubsection}{\numberline {B.1}Standardizovani reziduali}{41}{subsubsection.Alph0.2.1}\protected@file@percent }
\newlabel{sec:dodatak_std_rez}{{B.1}{41}{Standardizovani reziduali}{subsubsection.Alph0.2.1}{}}
\@writefile{toc}{\contentsline {subsubsection}{\numberline {B.2}Standardizovani ZL indeks}{41}{subsubsection.Alph0.2.2}\protected@file@percent }
\newlabel{sec:dodatak_std_zli}{{B.2}{41}{Standardizovani ZL indeks}{subsubsection.Alph0.2.2}{}}
\@writefile{toc}{\contentsline {subsection}{\numberline {C}Generacija podataka}{42}{subsection.Alph0.3}\protected@file@percent }
\newlabel{sec:dodatak_generacija_podataka}{{C}{42}{Generacija podataka}{subsection.Alph0.3}{}}
\@writefile{toc}{\contentsline {subsubsection}{\numberline {C.1}Generacija parametara pitanja}{42}{subsubsection.Alph0.3.1}\protected@file@percent }
\newlabel{sec:dodatak_generacija_parametara_pitanja}{{C.1}{42}{Generacija parametara pitanja}{subsubsection.Alph0.3.1}{}}
\@writefile{toc}{\contentsline {subsubsection}{\numberline {C.2}Generacija odgovora i $\theta $ vrednosti ispitanika}{42}{subsubsection.Alph0.3.2}\protected@file@percent }
\newlabel{sec:dodatak_generacija_odgovora_i_theta}{{C.2}{42}{Generacija odgovora i $\theta $ vrednosti ispitanika}{subsubsection.Alph0.3.2}{}}
\@writefile{toc}{\contentsline {subsubsection}{\numberline {C.3}Normalna distribucija}{43}{subsubsection.Alph0.3.3}\protected@file@percent }
\newlabel{sec:dodatak_normal_dist}{{C.3}{43}{Normalna distribucija}{subsubsection.Alph0.3.3}{}}
\@writefile{toc}{\contentsline {subsection}{\numberline {D}Ukrštanje}{43}{subsection.Alph0.4}\protected@file@percent }
\newlabel{sec:dodatak_crossover}{{D}{43}{Ukrštanje}{subsection.Alph0.4}{}}
\@writefile{toc}{\contentsline {subsubsection}{\numberline {D.1}Mešano ukrštanje}{43}{subsubsection.Alph0.4.1}\protected@file@percent }
\newlabel{sec:dodatak_blend_crossover}{{D.1}{43}{Mešano ukrštanje}{subsubsection.Alph0.4.1}{}}
\@writefile{toc}{\contentsline {subsubsection}{\numberline {D.2}SBC ukrštanje}{43}{subsubsection.Alph0.4.2}\protected@file@percent }
\newlabel{sec:dodatak_sbc_crossover}{{D.2}{43}{SBC ukrštanje}{subsubsection.Alph0.4.2}{}}
\@writefile{toc}{\contentsline {subsection}{\numberline {E}Mutacija}{44}{subsection.Alph0.5}\protected@file@percent }
\newlabel{sec:dodatak_mutation}{{E}{44}{Mutacija}{subsection.Alph0.5}{}}
\@writefile{toc}{\contentsline {subsubsection}{\numberline {E.1}Nasumična mutacija}{44}{subsubsection.Alph0.5.1}\protected@file@percent }
\newlabel{sec:dodatak_random_mutation}{{E.1}{44}{Nasumična mutacija}{subsubsection.Alph0.5.1}{}}
\@writefile{toc}{\contentsline {subsubsection}{\numberline {E.2}Normalno distibuirana mutacija}{44}{subsubsection.Alph0.5.2}\protected@file@percent }
\newlabel{sec:dodatak_normal_mutation}{{E.2}{44}{Normalno distibuirana mutacija}{subsubsection.Alph0.5.2}{}}
\@writefile{toc}{\contentsline {subsubsection}{\numberline {E.3}Neravnomerna mutacija}{44}{subsubsection.Alph0.5.3}\protected@file@percent }
\newlabel{sec:dodatak_nonuni_mutataion}{{E.3}{44}{Neravnomerna mutacija}{subsubsection.Alph0.5.3}{}}
\@writefile{toc}{\contentsline {subsection}{\numberline {F}Invalidacija}{44}{subsection.Alph0.6}\protected@file@percent }
\newlabel{sec:dodatak_invalidacija}{{F}{44}{Invalidacija}{subsection.Alph0.6}{}}
\gdef \@abspage@last{45}
