setting, gen_avg, gen_med, gen_div, gen_min, gen_max, log_avg, log_med, log_div, log_min, log_max, rez_avg, rez_med, rez_div, rez_min, rez_max, zli_avg, zli_med, zli_div, zli_min, zli_max, chi_avg, chi_med, chi_div, chi_min, chi_max
1, 4104.571428571428, 4093, 747.7256672532967, 2691, 7270, 488.28202124489786, 484.512145, 27.35082959982348, 433.885202, 544.612806, 4.659820816326532, 4.2263, 2.301823473083927, 2.325, 17.449, 19.461566734693882, 17.91942, 6.122318692905787, 11.22007, 37.53809, 0.4907432653061224, 0.48762, 0.05581080743075188, 0.38043, 0.60982
2, 11078.387755102038, 10670, 4378.908231354657, 4447, 22803, 470.5613915102042, 466.17888, 26.81472619132663, 419.882079, 534.667831, 3.8977581632653058, 2.99628, 2.86372790897094, 1.98827, 20.09679, 20.643357346938775, 19.98435, 5.885525007425221, 11.71474, 36.93233, 0.4347548979591838, 0.43959, 0.04529929981539558, 0.34709, 0.52311
3, 12553.000000000002, 10925, 5719.539188659542, 5216, 32337, 459.9581879183673, 457.285685, 27.386016354386076, 403.850803, 527.443662, 1589.3198830612246, 2.91187, 8205.616609692768, 1.60354, 53389.41215, 19.189635306122447, 17.70363, 5.289537944167926, 11.84045, 33.12922, 0.45331346938775513, 0.44481, 0.0511462851824387, 0.35968, 0.54487
