setting, gen_avg, gen_med, gen_div, gen_min, gen_max, log_avg, log_med, log_div, log_min, log_max, rez_avg, rez_med, rez_div, rez_min, rez_max, zli_avg, zli_med, zli_div, zli_min, zli_max, chi_avg, chi_med, chi_div, chi_min, chi_max
1, 4506.510204081634, 4054, 3398.9860800457627, 2836, 27745, 488.5822001428572, 491.718651, 29.913181046474527, 421.92342, 543.83937, 5.4666204081632666, 3.74313, 8.981509964095729, 2.49676, 66.37566, 19.817118979591836, 19.02162, 6.491184266584023, 11.11144, 42.98403, 0.507035918367347, 0.50546, 0.06709389953467339, 0.40659, 0.76037
2, 12238.918367346938, 10791, 5637.227849756547, 4321, 29174, 434.6153439999999, 438.227772, 36.66046452371355, 336.627468, 520.214884, 44.133216734693875, 3.08221, 267.83781030661106, 1.75092, 1899.07924, 17.871768775510205, 16.69424, 5.191378579540582, 8.20343, 33.61051, 0.44780428571428593, 0.44154, 0.08637931264522325, 0.28741, 0.77088
3, 13110.306122448981, 12020, 6695.705691128262, 4439, 37044, 454.3655467142856, 453.644248, 28.648715629622053, 397.02024, 547.256313, 504.27329040816323, 2.93967, 3445.298732294454, 1.66288, 24373.71799, 20.546861632653062, 19.92259, 5.714684804558376, 12.00604, 39.61811, 0.4272602040816326, 0.42321, 0.044778879792470846, 0.33552, 0.54601
