setting, gen_avg, gen_med, gen_div, gen_min, gen_max, log_avg, log_med, log_div, log_min, log_max, rez_avg, rez_med, rez_div, rez_min, rez_max, zli_avg, zli_med, zli_div, zli_min, zli_max, chi_avg, chi_med, chi_div, chi_min, chi_max
0, 1169.204081632653, 1165, 566.8767270375541, 89, 2470, 516.505510877551, 490.869066, 79.63794791128669, 442.959968, 914.651309, 6.457137755102042, 4.06765, 8.893161953247613, 1.4662, 58.4071, 16.71677755102041, 15.44852, 5.66889482319284, 10.25527, 38.26202, 0.6374471428571429, 0.57321, 0.3138720039267274, 0.40067, 2.14835
1, 968.7142857142854, 966, 486.6332902542463, 80, 2005, 547.6428935102041, 519.157319, 95.26541282913824, 447.399016, 967.518693, 44.17874285714288, 7.77628, 74.7780176811036, 1.87146, 310.87, 13.218196734693876, 11.98587, 4.274619319982172, 7.8741, 31.24257, 0.873171836734694, 0.7207, 0.4856837900286835, 0.46204, 2.29552
2, 1487.1224489795918, 1438, 533.2554096725347, 66, 2764, 502.0890286122449, 488.459624, 69.76905745544153, 438.626881, 889.415386, 9.35144775510204, 4.39006, 20.083207404503877, 1.29321, 126.96622, 16.975406938775503, 15.00764, 5.968363643596878, 8.58059, 38.81355, 0.6439338775510204, 0.54078, 0.5354417785107553, 0.37862, 3.5709
