setting, gen_avg, gen_med, gen_div, gen_min, gen_max, log_avg, log_med, log_div, log_min, log_max, rez_avg, rez_med, rez_div, rez_min, rez_max, zli_avg, zli_med, zli_div, zli_min, zli_max, chi_avg, chi_med, chi_div, chi_min, chi_max
#0.3, 133.89795918367346, 101, 119.03407930778225, 49, 619, 963.5403479999999, 957.062836, 61.88849813524503, 857.882979, 1163.187249, 123.22779551020403, 95.02628, 106.49113189920917, 9.20094, 528.6308, 10.395367346938778, 9.95142, 1.9004246026888854, 7.56339, 16.04488, 2.534339387755102, 2.19565, 0.991338989473654, 1.1038, 5.08676
#0.6, 316.1224489795919, 271, 229.92852772848838, 52, 1039, 925.390828367347, 916.839087, 68.14301933079953, 789.785318, 1116.620487, 106.40163734693874, 88.58253, 100.9476768981813, 9.66823, 459.02807, 11.114603673469386, 10.539, 2.4841042421813224, 7.50607, 19.41218, 2.32983306122449, 2.02127, 1.0218989699977516, 0.98499, 5.38352
1.0, 809.8367346938776, 666, 650.0397584995507, 54, 3440, 823.336925122449, 819.693601, 112.70696130392443, 596.438203, 1065.171018, 66.47031959183674, 34.53457, 80.37197000075227, 5.57305, 439.52781, 12.284100204081636, 11.45887, 2.6791994812382494, 7.54527, 17.80182, 1.7677685714285718, 1.62795, 0.7617253442986774, 0.63015, 4.38517
#1.0, 809.8367346938776, 666, 650.0397584995507, 54, 3440, 823.336925122449, 819.693601, 112.70696130392443, 596.438203, 1065.171018, 66.47031959183674, 34.53457, NaN, 5.57305, 439.52781, 12.284100204081636, 11.45887, 2.6791994812382494, 7.54527, 17.80182, 1.7677685714285718, 1.62795, 0.7617253442986774, 0.63015, 4.38517
1.5, 1888.6938775510205, 1925, 704.8070861860185, 176, 3210, 622.6719944693876, 577.196745, 113.67960510648865, 505.995041, 986.09006, 17.945265714285718, 7.07424, 24.924281073594866, 0.90369, 96.23233, 15.68935612244898, 14.86557, 4.187462756121584, 8.30866, 24.44624, 0.9681608163265306, 0.72361, 0.6471960394193943, 0.48658, 3.6888
2.5, 2514.163265306123, 2629, 537.8251118118791, 1166, 3666, 510.09198506122436, 502.273733, 36.41945776708387, 417.355215, 611.423605, 4.098175918367348, 3.35891, 2.7690421165176673, 0.76992, 13.93343, 18.022719591836733, 17.09514, 4.214893068088471, 10.77355, 28.20786, 0.5778636734693877, 0.57116, 0.09789956887803757, 0.36616, 0.96645
3.9, 2670.6326530612246, 2655, 500.1777926296808, 1566, 3947, 487.0539158163264, 483.807792, 28.373431089976172, 416.117833, 535.885132, 3.1626761224489797, 2.30105, 2.9671707581154774, 0.68398, 20.72264, 18.125088367346937, 16.93871, 4.791742920908308, 10.63175, 34.44112, 0.5389267346938775, 0.52997, 0.0752625847199359, 0.36697, 0.71868
6.3, 2463.4285714285716, 2533, 408.8643804889991, 1640, 3288, 483.7492872448979, 483.581589, 27.066302398294706, 414.780626, 534.518664, 3.7777753061224493, 2.48201, 5.195323524394506, 0.70114, 36.82441, 18.003686734693876, 17.01474, 4.387755503554524, 10.8465, 30.17258, 0.5337683673469388, 0.53736, 0.06818966656250691, 0.37047, 0.684
10.0, 2438.387755102041, 2419, 406.3142353022426, 1731, 3483, 483.1553420000001, 480.848629, 26.887436623304083, 413.478889, 531.772702, 3.246016734693878, 2.5327, 3.124463223930053, 0.74771, 22.21149, 18.10410040816326, 17.13586, 4.594022993946151, 10.72059, 30.8984, 0.5299285714285714, 0.53452, 0.06939576876473794, 0.36937, 0.66979
15.8, 2417.2653061224496, 2375, 363.31707496290363, 1568, 3271, 482.8673279795918, 480.968626, 26.849828018911282, 414.39579, 530.70559, 3.2900338775510196, 2.42373, 3.1328041640793183, 0.77728, 21.32088, 17.948209591836733, 17.32552, 4.447043419788193, 10.74326, 29.87714, 0.5300104081632653, 0.52876, 0.06789299125136478, 0.36277, 0.6779
25.1, 2316.8367346938767, 2267, 373.77649913233375, 1654, 3016, 482.9307847755102, 480.870923, 26.928995360641128, 413.628279, 531.544128, 3.20429, 2.54661, 2.715062627531897, 0.69825, 18.46957, 18.101874693877548, 17.18602, 4.659172539001767, 11.01198, 30.47962, 0.5291918367346938, 0.53306, 0.06685170917093582, 0.37095, 0.6612
39.8, 2122.285714285714, 2074, 431.5950955822045, 1369, 3291, 483.47169704081637, 481.314812, 26.95512287989407, 414.051297, 533.637489, 3.427933469387755, 2.35967, 3.229300011418757, 0.71883, 22.00631, 17.925880408163263, 16.85518, 4.620670621229532, 10.97387, 30.14929, 0.5376848979591837, 0.54386, 0.07072187610409855, 0.37234, 0.679
63.0, 1348.551020408163, 1343, 237.1371824815444, 677, 1914, 487.4768755102041, 487.32444, 27.467226834260916, 417.15114, 535.314259, 4.7127602040816345, 3.01914, 5.148378946368078, 0.86469, 32.5832, 17.435745918367346, 17.07323, 4.1930905202170825, 11.41691, 30.01357, 0.559115918367347, 0.57059, 0.07964945445880449, 0.37873, 0.71455
100.0, 911.1020408163264, 895, 166.29899859773835, 605, 1403, 497.36685993877546, 496.795013, 27.860100141496876, 429.962095, 555.082855, 4.927582244897959, 3.6998, 4.691299803478282, 1.06375, 33.24599, 16.635316530612247, 16.08669, 4.1621699104034136, 9.93791, 28.57871, 0.61681306122449, 0.59935, 0.11642199233303034, 0.40879, 0.94091
