setting, gen_avg, gen_med, gen_div, gen_min, gen_max, log_avg, log_med, log_div, log_min, log_max, rez_avg, rez_med, rez_div, rez_min, rez_max, zli_avg, zli_med, zli_div, zli_min, zli_max, chi_avg, chi_med, chi_div, chi_min, chi_max
1, 175.85714285714283, 133, 145.38113175164017, 50, 902, 920.388565632653, 922.785079, 106.28115173021489, 585.20836, 1097.983021, 127.8230953061225, 80.5158, 116.94961836935595, 5.79521, 479.98979, 10.726962448979586, 10.19107, 2.1951396017496267, 7.47089, 17.70889, 2.1250565306122446, 1.99612, 1.0003844417829741, 0.72897, 5.24189
2, 624.1836734693877, 672, 432.7224530413201, 61, 1654, 676.7684692857143, 599.272786, 182.0448606387374, 456.552767, 1017.760701, 44.05621428571429, 9.73708, 77.43847486729857, 1.16484, 350.21476, 15.64012346938775, 14.06747, 6.9596149962924345, 8.93033, 47.84643, 1.144792244897959, 0.79455, 0.7578421523070141, 0.43668, 3.35621
3, 1113.5918367346937, 1061, 638.0669121833204, 74, 3613, 544.2853013673468, 504.209773, 126.65480529899787, 438.18782, 1013.353717, 22.10818734693877, 4.12373, 60.594224923423205, 1.29788, 320.10898, 17.429122653061217, 16.48483, 6.49689305038351, 10.13079, 50.21486, 0.6103928571428573, 0.56005, 0.22707164543197306, 0.42453, 1.77557
4, 1751.7959183673465, 1687, 665.8347524231225, 62, 3206, 495.0601119387755, 485.074327, 63.081898535342546, 437.354663, 888.237657, 7.519670408163264, 2.99736, 19.31283207402312, 1.20465, 107.94978, 17.914792040816334, 16.44127, 6.214357041697379, 10.83056, 41.83942, 0.5455314285714284, 0.50955, 0.2305611034597367, 0.35529, 2.05744
#5, 2126.7142857142862, 2231, 587.2291559797189, 224, 3230, 489.69126302040826, 479.773043, 47.63063876276689, 437.545024, 760.436542, 6.390601632653061, 3.03851, 16.028793535050827, 1.29168, 105.28885, 17.78789918367347, 16.46378, 5.772688265936856, 11.17294, 40.62566, 0.5237500000000002, 0.50549, 0.12318432273364552, 0.3676, 1.20179
6, 2287.918367346939, 2220, 436.1442298763991, 947, 3134, 484.71087165306136, 479.852, 27.762975933256104, 437.113966, 547.662449, 5.975607959183673, 3.04599, 19.779923435694865, 1.25729, 142.69311, 18.250870612244903, 16.48942, 6.133745259557202, 10.63432, 43.14331, 0.5089342857142857, 0.50297, 0.07469290027184919, 0.36726, 0.74062
12, 2112.8775510204077, 2079, 482.79609219514236, 1285, 3016, 485.02268712244893, 480.09814, 27.753367044638747, 438.255561, 548.011155, 6.108989591836736, 3.15982, 19.425448784917712, 1.25391, 140.20303, 18.049011020408162, 16.25316, 6.086628249051859, 10.33137, 41.17074, 0.5112816326530613, 0.51279, 0.07383369836098537, 0.37446, 0.76461
25, 1878.5918367346937, 1906, 466.4685355168543, 963, 2965, 485.91847669387755, 482.304845, 28.10173007155277, 438.154964, 554.387923, 4.426763265306122, 3.40151, 7.598308163196832, 1.19633, 56.18878, 17.844392244897964, 16.2053, 5.830463380527705, 10.51758, 39.08131, 0.5168789795918366, 0.51514, 0.076144662300899, 0.36999, 0.77702
50, 1468.0204081632658, 1481, 368.7231409683255, 822, 2247, 487.1840316530612, 482.588128, 27.88339838759289, 439.182473, 551.232802, 5.907601836734695, 3.10722, 15.517907169849156, 1.2859, 112.06246, 18.06354224489796, 16.44552, 5.8687805264148, 10.48015, 41.89857, 0.5145504081632652, 0.5107, 0.07821293885230907, 0.37163, 0.76636
100, 1114.7551020408164, 1075, 333.8797003573352, 525, 1798, 489.71908981632635, 483.549513, 27.6623490857396, 442.129271, 555.603084, 5.552960408163265, 3.06986, 15.074131730046808, 1.37242, 109.09452, 18.151269591836733, 16.50751, 5.611428459114401, 10.93872, 36.67723, 0.5184961224489796, 0.51163, 0.08280621855816975, 0.34725, 0.76404
